200
4520.00 0.00000
4534.92 0.00000
4549.85 0.00000
4564.77 0.00006
4579.70 0.00029
4594.62 0.00055
4609.55 0.00108
4624.47 0.00658
4639.40 0.01195
4654.32 0.04194
4669.25 0.07316
4684.17 0.10345
4699.10 0.19447
4714.02 0.15751
4728.94 0.29233
4743.87 0.27281
4758.79 0.29499
4773.72 0.43993
4788.64 0.34593
4803.57 0.43952
4818.49 0.49071
4833.42 0.50547
4848.34 0.54721
4863.27 0.53940
4878.19 0.56131
4893.12 0.49551
4908.04 0.47389
4922.96 0.49802
4937.89 0.55170
4952.81 0.57110
4967.74 0.51637
4982.66 0.53841
4997.59 0.58077
5012.51 0.59314
5027.44 0.55467
5042.36 0.50016
5057.29 0.48656
5072.21 0.56086
5087.14 0.58515
5102.06 0.54158
5116.98 0.54664
5131.91 0.55177
5146.83 0.57408
5161.76 0.59965
5176.68 0.57150
5191.61 0.56293
5206.53 0.59724
5221.46 0.59281
5236.38 0.51549
5251.31 0.58406
5266.23 0.57779
5281.16 0.57833
5296.08 0.60366
5311.00 0.57368
5325.93 0.58212
5340.85 0.56585
5355.78 0.62372
5370.70 0.60430
5385.63 0.60048
5400.55 0.54821
5415.48 0.55903
5430.40 0.60296
5445.33 0.63466
5460.25 0.63306
5475.18 0.64307
5490.10 0.64019
5505.03 0.61830
5519.95 0.60976
5534.87 0.62506
5549.80 0.63983
5564.72 0.62540
5579.65 0.64044
5594.57 0.63162
5609.50 0.60042
5624.42 0.60937
5639.35 0.64073
5654.27 0.63950
5669.20 0.61795
5684.12 0.62240
5699.05 0.64190
5713.97 0.64418
5728.89 0.63243
5743.82 0.63541
5758.74 0.60532
5773.67 0.60274
5788.59 0.62372
5803.52 0.65203
5818.44 0.66298
5833.37 0.64452
5848.29 0.62615
5863.22 0.65331
5878.14 0.64967
5893.07 0.64353
5907.99 0.64978
5922.91 0.67586
5937.84 0.64602
5952.76 0.61345
5967.69 0.63771
5982.61 0.64332
5997.54 0.63739
6012.46 0.64755
6027.39 0.65278
6042.31 0.66006
6057.24 0.67189
6072.16 0.65569
6087.09 0.66034
6102.01 0.67673
6116.93 0.67522
6131.86 0.67968
6146.78 0.68393
6161.71 0.66259
6176.63 0.61622
6191.56 0.58875
6206.48 0.57980
6221.41 0.59713
6236.33 0.64506
6251.26 0.67847
6266.18 0.67735
6281.11 0.69031
6296.03 0.67434
6310.96 0.66036
6325.88 0.65862
6340.80 0.67054
6355.73 0.70266
6370.65 0.65389
6385.58 0.64325
6400.50 0.63419
6415.43 0.63446
6430.35 0.62395
6445.28 0.67375
6460.20 0.72402
6475.13 0.70279
6490.05 0.67049
6504.98 0.67333
6519.90 0.65739
6534.82 0.64654
6549.75 0.62932
6564.67 0.67672
6579.60 0.67793
6594.52 0.65813
6609.45 0.62375
6624.37 0.66080
6639.30 0.65189
6654.22 0.69040
6669.15 0.72742
6684.07 0.70865
6699.00 0.68124
6713.92 0.69099
6728.84 0.67112
6743.77 0.66152
6758.69 0.65737
6773.62 0.67738
6788.54 0.65695
6803.47 0.69865
6818.39 0.66469
6833.32 0.65060
6848.24 0.64356
6863.17 0.68301
6878.09 0.68933
6893.02 0.64700
6907.94 0.60631
6922.86 0.60631
6937.79 0.60763
6952.71 0.59589
6967.64 0.65509
6982.56 0.68278
6997.49 0.67802
7012.41 0.65862
7027.34 0.63554
7042.26 0.66934
7057.19 0.67181
7072.11 0.62846
7087.04 0.39619
7101.96 0.17242
7116.88 0.08350
7131.81 0.05133
7146.73 0.03733
7161.66 0.02216
7176.58 0.00898
7191.51 0.00367
7206.43 0.00181
7221.36 0.00099
7236.28 0.00059
7251.21 0.00035
7266.13 0.00022
7281.06 0.00014
7295.98 0.00009
7310.90 0.00007
7325.83 0.00005
7340.75 0.00005
7355.68 0.00004
7370.60 0.00004
7385.53 0.00004
7400.45 0.00003
7415.38 0.00003
7430.30 0.00002
7445.23 0.00001
7460.15 0.00000
7475.08 0.00000
7490.00 0.00000
