187
 7600.00 0.00000
 7640.00 0.00001
 7680.00 0.00002
 7720.00 0.00004
 7760.00 0.00006
 7800.00 0.00011
 7840.00 0.00021
 7880.00 0.00041
 7920.00 0.00079
 7960.00 0.00156
 8000.00 0.00320
 8010.00 0.00492
 8020.00 0.00586
 8030.00 0.00692
 8040.00 0.00825
 8050.00 0.00982
 8060.00 0.01147
 8070.00 0.01347
 8080.00 0.01570
 8090.00 0.01912
 8100.00 0.02220
 8110.00 0.02651
 8120.00 0.03013
 8130.00 0.03537
 8140.00 0.03991
 8150.00 0.04617
 8160.00 0.05283
 8170.00 0.05979
 8180.00 0.06725
 8190.00 0.07584
 8200.00 0.08467
 8210.00 0.09469
 8220.00 0.10305
 8230.00 0.11470
 8240.00 0.12339
 8250.00 0.13348
 8260.00 0.14647
 8270.00 0.16030
 8280.00 0.17188
 8290.00 0.18445
 8300.00 0.19852
 8310.00 0.21062
 8320.00 0.21601
 8330.00 0.23534
 8340.00 0.24685
 8350.00 0.25935
 8360.00 0.26615
 8370.00 0.28352
 8380.00 0.28946
 8390.00 0.29955
 8400.00 0.30685
 8410.00 0.32140
 8420.00 0.32665
 8430.00 0.32430
 8440.00 0.34205
 8450.00 0.34530
 8460.00 0.34622
 8470.00 0.35643
 8480.00 0.36280
 8490.00 0.36845
 8500.00 0.37065
 8510.00 0.37424
 8520.00 0.38019
 8530.00 0.38237
 8540.00 0.38490
 8550.00 0.38667
 8560.00 0.38608
 8570.00 0.38946
 8580.00 0.39060
 8590.00 0.39063
 8600.00 0.39080
 8610.00 0.39753
 8620.00 0.39279
 8630.00 0.39467
 8640.00 0.38637
 8650.00 0.39167
 8660.00 0.38953
 8670.00 0.39057
 8680.00 0.38772
 8690.00 0.38838
 8700.00 0.38641
 8710.00 0.38656
 8720.00 0.38347
 8730.00 0.38194
 8740.00 0.37943
 8750.00 0.38105
 8760.00 0.37660
 8770.00 0.37657
 8780.00 0.37325
 8790.00 0.37211
 8800.00 0.37031
 8810.00 0.36718
 8820.00 0.36589
 8830.00 0.35994
 8840.00 0.35808
 8850.00 0.35945
 8860.00 0.35684
 8870.00 0.35450
 8880.00 0.35210
 8890.00 0.34984
 8900.00 0.34785
 8910.00 0.34503
 8920.00 0.34080
 8930.00 0.33995
 8940.00 0.33844
 8950.00 0.33550
 8960.00 0.33247
 8970.00 0.33062
 8980.00 0.32727
 8990.00 0.32624
 9000.00 0.32379
 9010.00 0.32131
 9020.00 0.31699
 9030.00 0.31553
 9040.00 0.31171
 9050.00 0.30965
 9060.00 0.30654
 9070.00 0.30386
 9080.00 0.30160
 9090.00 0.29966
 9100.00 0.29530
 9110.00 0.29437
 9120.00 0.29099
 9130.00 0.28914
 9140.00 0.28491
 9150.00 0.28311
 9160.00 0.27995
 9170.00 0.28062
 9180.00 0.27382
 9190.00 0.27189
 9200.00 0.26927
 9210.00 0.26776
 9220.00 0.26344
 9230.00 0.26231
 9240.00 0.25913
 9250.00 0.25724
 9260.00 0.25363
 9270.00 0.25272
 9280.00 0.25020
 9290.00 0.24774
 9300.00 0.24550
 9310.00 0.24266
 9320.00 0.23895
 9330.00 0.23708
 9340.00 0.23524
 9350.00 0.23228
 9360.00 0.22945
 9370.00 0.22744
 9380.00 0.22434
 9390.00 0.22218
 9400.00 0.21823
 9410.00 0.21660
 9420.00 0.21321
 9430.00 0.21135
 9440.00 0.20877
 9450.00 0.20671
 9460.00 0.20323
 9470.00 0.20112
 9480.00 0.19880
 9490.00 0.19645
 9500.00 0.19337
 9540.00 0.18140
 9580.00 0.17396
 9620.00 0.16351
 9660.00 0.15458
 9700.00 0.14434
 9740.00 0.13551
 9780.00 0.12591
 9820.00 0.11821
 9860.00 0.11006
 9900.00 0.10304
 9940.00 0.09517
 9980.00 0.08841
10020.00 0.08139
10060.00 0.07616
10100.00 0.07030
10140.00 0.06504
10180.00 0.05907
10220.00 0.05433
10260.00 0.05018
10300.00 0.04604
10340.00 0.04193
10380.00 0.03784
10420.00 0.03411
10460.00 0.03111
10500.00 0.02792
11000.00 0.00000
